[{
    "page": 1, 
    "pages": 2, 
    "per_page": 50,
    "total": 62,
    "sourceid": "2",
    "sourcename": "World Development Indicators",
    "lastupdated": "2022-09-16"
}, [{
    "indicator": {
      "id": "SI.POV.DDAY",
      "value": "Poverty headcount ratio at $2.15 a day (2017 PPP) (% of population)"
    },
    "country": {
     "id": "BR",
      "value": "Brazil"
    },
    "countryiso3code": "BRA",
    "date": "2021",
    "value": 1.69,
    "unit": "",
    "obs_status": "",
    "decimal": 1
  }] 
]